[{
    "pk": 1,
    "model": "users.user",
    "fields": {
        "email": "admin@centup.org",
        "username": "admin",
        "first_name": "Admin",
        "last_name": "Superuser",
        "account": 1,
        "created_at": "2012-12-08T06:41:54.563Z",
        "is_active": true,
        "last_login": "2012-12-08T06:42:00Z",
        "is_admin": true,
        "password": "pbkdf2_sha256$10000$4yDC7pWrY02j$x/jA9zsqk+v11Fq4piY6wzJT5P+JpRsFTOwASQ69Kkk=",
        "invite": "CENTUP-ROOT-INVITE"
    }
}]